[
  "anda",
  "asi",
  "asi",
  "el",
  "em",
  "alat",
  "iah",
  "if",
  "is",
  "kah",
  "kan",
  "lah",
  "man",
  "mu",
  "nda",
  "ni",
  "nya",
  "wan",
  "wati",
  "wiah",
  "aba-aba",
  "abad",
  "abad keemasan",
  "abad komputer",
  "abad modern",
  "abad pertengahan",
  "abadi",
  "abadiah",
  "abadiat",
  "abah",
  "abah-abah",
  "abakus",
  "abang",
  "abangan",
  "abangga",
  "abar-abar",
  "abdi",
  "abdi masyarakat",
  "abdi negara",
  "abdikasi",
  "abdomen",
  "abdominal",
  "abis",
  "abjad",
  "abnormal",
  "acuci",
  "adnominal",
  "afasiologi",
  "ABK",
  "ada-ada",
  "adok",
  "afesis",
  "ablatif absolut",
  "adaci",
  "adposisi",
  "afgani",
  "abahui",
  "aboa",
  "adak",
  "adstratum",
  "agadi",
  "aduk-aduk",
  "agak",
  "age",
  "abun-abun",
  "agon",
  "akar manis",
  "akrostik",
  "aliwadala",
  "ambalan",
  "agoni",
  "akla",
  "aktifitas",
  "alkalinitas tanah",
  "ambarita",
  "agramatisme",
  "akmatoang",
  "alaan",
  "aloco",
  "ambeng",
  "agregat tanah",
  "ako",
  "alan",
  "altruistik",
  "ambilan dekat",
  "agrohidrologi",
  "akok",
  "alapiah",
  "aluang",
  "ambori",
  "aguk",
  "akrak-akrak",
  "alfazil",
  "ahai",
  "akrofoni",
  "algam",
  "alumbu",
  "amburu",
  "aila",
  "akrolek",
  "algrafi",
  "amam",
  "amfolitoid",
  "air bumi",
  "akronimi",
  "alih wahana",
  "ambai",
  "ampak",
  "ajar",
  "akropolis",
  "alit",
  "ambaian",
  "ampal-ampalan",
  "ampi",
  "anestesi umum",
  "antropologi forensik",
  "aporisma",
  "aruh",
  "amplang",
  "anggana",
  "antropologi molekuler",
  "aran",
  "arupako",
  "amplas",
  "anggar",
  "antropologi psikologi",
  "araro",
  "asa",
  "ampok",
  "antang",
  "antropologi sosial budaya",
  "aras",
  "asak",
  "anak bajang",
  "antartika",
  "antumbra",
  "argilan",
  "asemen",
  "anak berkebutuhan khusus",
  "antol",
  "antung",
  "argo",
  "asepan",
  "analgetik",
  "antropik",
  "aok",
  "arko",
  "asesi",
  "anca",
  "antropogenik",
  "apean",
  "arnu",
  "asesmen",
  "ancul",
  "antropologi biologi",
  "apil",
  "aron",
  "asesor utama",
  "andina",
  "antropol,ogi fisik",
  "apin",
  "arsap",
  "asimtomatis",
  "aspel",
  "babancik",
  "Bakkah",
  "bank daya",
  "batu keping",
  "atap rumbia",
  "babtis",
  "bakpau",
  "bantilang",
  "batuan basis",
  "atir",
  "badaniah",
  "baloki",
  "barlang",
  "batuan dasar",
  "ATPM",
  "badiri",
  "baluat",
  "basantara",
  "bayawa",
  "autobiopik",
  "bagai burung dalam sangkar emas",
  "balunek",
  "basir",
  "bayonet",
  "awah",
  "bagaimanapun",
  "bandros",
  "baso",
  "bebai maring",
  "awan gemawan",
  "bagarit",
  "bangbarung",
  "basreng",
  "bebop",
  "awataksa",
  "bahlul",
  "bangus",
  "batang",
  "bebulan",
  "awil",
  "baja ringan",
  "baniu batial",
  "bebungaan",
  "ayetan",
  "bakamla",
  "banjir kiriman",
  "bato",
  "bedor",
  "belah krol",
  "berempulur",
  "berokan",
  "bilatung",
  "bit",
  "beli",
  "bergas",
  "berpaduan",
  "bindi",
  "biyak",
  "terbendang",
  "bendang",
  "bergolf",
  "berski",
  "binorna",
  "binorna",
  "blauk",
  "bendoyo",
  "berhidang",
  "bertahlil",
  "bioarkeologi",
  "bledik",
  "berkik ekor kipas",
  "bertembok",
  "biodegradasi",
  "blongkak",
  "benting",
  "berkik ekor lidi",
  "beruang es",
  "biometrik",
  "blur",
  "benyer",
  "beruang kutub",
  "biotit",
  "bobak",
  "beraduk",
  "bidang erosi",
  "bioturbasi",
  "bobaka",
  "berbauran",
  "bifurkasi",
  "bir pletok",
  "bobat",
  "berbibir",
  "berkik rawa",
  "bigot",
  "birnesit",
  "boboto",
  "acak-acakan",
  "acan",
  "acang",
  "acap",
  "acap kali",
  "acara",
  "acar",
  "acara iklan",
  "acara warga",
  "acara tugas",
  "acara surat",
  "acara rapat",
  "acik",
  "acuan",
  "acuan sepatu",
  "acuh",
  "acuh tak acuh",
  "acuhan",
  "acuman",
  "ada",
  "ada-ada saja",
  "ada-adanya",
  "adab",
  "adad",
  "adaptasi sosial",
  "adegan",
  "adati",
  "adat pembuang",
  "adat pembiaran mayat",
  "adat pembakaran mayat",
  "adat pemali",
  "adat pemaduan",
  "adat patrilokal",
  "adat neolokal",
  "adat matrilokal",
  "adat matrilineal",
  "adat kemenakan",
  "adat istiadat",
  "adat huma",
  "adat",
  "adas manis",
  "Faadhilah",
  "Fadey",
  "Fadhilah",
  "Fakhirah",
  "Fakinah",
  "Fallon",
  "Farand",
  "Farhan",
  "Farhanah",
  "Farica",
  "Farrell",
  "Faste",
  "Fathi",
  "Fathinah",
  "Fausta",
  "Faustine",
  "Fauziyyah",
  "Fawnia",
  "Fawwaz",
  "Fayola",
  "Fedora",
  "Felda",
  "Fengguang",
  "Fengying",
  "Feodora",
  "Ferris",
  "Fidela",
  "Fidelya",
  "Filbert",
  "Filia",
  "Fiorenza",
  "Freda",
  "Fredelina",
  "Fredella",
  "Frederika",
  "Frieda",
  "Frodine",
  "Fruma",
  "Ari",
  "Ayu",
  "Tika",
  "Aulia",
  "Pratiwi",
  "Utami",
  "Anggi",
  "Tri",
  "Dwi",
  "Agus",
  "Lestari",
  "Maria",
  "Novita",
  "Tyas",
  "Nur",
  "Wahyu",
  "Ade",
  "Riza",
  "Arya",
  "Hadi",
  "Bayu",
  "Ria",
  "Dian",
  "Eka",
  "Indah",
  "Angga",
  "Rizal",
  "Mila",
  "Lia",
  "Yani",
  "Rina",
  "Adit",
  "Astuti",
  "Indra",
  "Yudi",
  "Adi",
  "Putra",
  "Nurul",
  "Yulia",
  "Anna",
  "Gita",
  "Andy",
  "Rian",
  "Andi",
  "Arif",
  "Annisa",
  "Rini",
  "Fajar",
  "Ilham",
  "Sari",
  "Sri",
  "Rizki",
  "Amalia",
  "Kusuma",
  "Rio",
  "Dinda",
  "Ika",
  "Yuni",
  "Maya",
  "Devi",
  "Widya",
  "Agung",
  "Andre",
  "Putri",
  "Dewi",
  "Wulan",
  "Ajie",
  "Budi",
  "Reza",
  "Naufal",
  "Yunita",
  "ambigu",
  "prioritas",
  "makna",
  "implementasi",
  "integritas",
  "kosakata",
  "naif",
  "nostalgia",
  "domisili",
  "sinonim",
  "konsolidasi",
  "interpretasi",
  "komprehensif",
  "analisis",
  "rekonsiliasi",
  "hakikat",
  "perspektif",
  "verifikasi",
  "apresiasi",
  "integrasi",
  "substansi",
  "vakum",
  "diaspora",
  "radikalisme",
  "radikal",
  "paradoks",
  "akomodasi",
  "konservatif",
  "komitmen",
  "regulasi",
  "referensi",
  "persekusi",
  "indikator",
  "signifikan",
  "implikasi",
  "dinamis",
  "kafir",
  "manifestasi",
  "boikot",
  "istilah",
  "apatis",
  "nista",
  "efektif",
  "objektif",
  "aktivitas",
  "urgensi",
  "peka",
  "relevan",
  "rekomendasi",
  "menggiling",
  "kardus",
  "peduli",
  "lengkap",
  "kuitansi",
  "pipih",
  "menyerap",
  "silakan",
  "mendidih",
  "nasehat",
  "nasihat",
  "akta",
  "antonim",
  "seantero",
  "memerhatikan",
  "mensosialisasikan",
  "izin",
  "antre",
  "kajian",
  "selulosa",
  "keilmuan",
  "rindu",
  "terlanjur",
  "sulit",
  "kemasan",
  "pembalakan",
  "tersirat",
  "telanjur",
  "besar",
  "lembap",
  "zaman",
  "pembual",
  "kebiasaan",
  "lunak",
  "teknis",
  "pemirsa",
  "punah",
  "tergenang",
  "rapor",
  "propagandis",
  "pikir",
  "bertitah",
  "ijazah",
  "baku",
  "penanggung jawab",
  "terserah",
  "praktik",
  "resapan",
  "ungkapan",
  "keabsahan",
  "kecantol",
  "memengaruhi",
  "perawakan",
  "serat",
  "keri",
  "karier",
  "optik",
  "observasi",
  "tempek",
  "ngebet",
  "pulp",
  "kerusakan",
  "akademik",
  "menindaklanjuti",
  "pengalaman",
  "populer",
  "termaktub",
  "konsep",
  "akomodir",
  "pendusta",
  "demokrasi",
  "didik",
  "hubung",
  "hukum",
  "kelompok",
  "komunikasi",
  "latih",
  "logika",
  "negara",
  "nilai",
  "objek",
  "perdata",
  "sektor",
  "analisis",
  "nuansa",
  "burung",
  "ular",
  "akar",
  "hisap",
  "isap",
  "kertas",
  "beras",
  "gas",
  "lembab",
  "lembap",
  "mintakat",
  "kurung",
  "salah",
  "selisih",
  "singkat",
  "koefisien",
  "cendekiawan",
  "cendikiawan",
  "foto",
  "istri",
  "laksana",
  "lepas",
  "suami",
  "tanggang",
  "tebus",
  "tunjang",
  "lubang",
  "ahli",
  "daya",
  "kurang",
  "olah",
  "pola",
  "amfibi",
  "daftar",
  "daftar hitam",
  "obat",
  "frekuensi",
  "izin",
  "ijin",
  "minta",
  "surat",
  "makhluk",
  "dokter",
  "jam",
  "handal",
  "gizi",
  "anemima",
  "sakit",
  "terapi",
  "jadwal",
  "mahkamah",
  "analisis",
  "analisa",
  "kimia",
  "dekret",
  "gladi",
  "jenazah",
  "peti",
  "kereta",
  "metode",
  "metoda",
  "detail",
  "peta",
  "gubuk",
  "jenderal",
  "brigadir",
  "direktorat",
  "direktur",
  "inspektorat",
  "inspektur",
  "konsul",
  "letnan",
  "mayor",
  "sekretaris",
  "total",
  "ubi",
  "vikaris",
  "menyolok",
  "mencolok",
  "colok",
  "ambil",
  "manajemen",
  "justru",
  "miliar",
  "panitia",
  "tabel",
  "data",
  "goblok",
  "tolol",
  "bangsat",
  "anjing",
  "monyet",
  "idiot",
  "bego",
  "tai"
]